{
  "project_info": {
    "project_number": "141583231876",
    "firebase_url": "https://paronim-e54bb.firebaseio.com",
    "project_id": "paronim-e54bb",
    "storage_bucket": "paronim-e54bb.appspot.com"
  },
  "client": [
    {
      "client_info": {
        "mobilesdk_app_id": "1:141583231876:android:ab013922ba960c94748bd1",
        "android_client_info": {
          "package_name": "com.ismatti.paronim"
        }
      },
      "oauth_client": [
        {
          "client_id": "141583231876-58lvi03muu2u63ticvhii1bo9mndt30t.apps.googleusercontent.com",
          "client_type": 1,
          "android_info": {
            "package_name": "com.ismatti.paronim",
            "certificate_hash": "e14be1b4666b1324ae246cf22b25e40863e9b979"
          }
        },
        {
          "client_id": "141583231876-s3hh60p2tp0d2uch0spht2jnab8ntkl9.apps.googleusercontent.com",
          "client_type": 3
        }
      ],
      "api_key": [
        {
          "current_key": "AIzaSyAk2ZLQP2ExMCzw-tMcjrunIOkC7DIpfE0"
        }
      ],
      "services": {
        "appinvite_service": {
          "other_platform_oauth_client": [
            {
              "client_id": "141583231876-s3hh60p2tp0d2uch0spht2jnab8ntkl9.apps.googleusercontent.com",
              "client_type": 3
            }
          ]
        }
      }
    }
  ],
  "configuration_version": "1"
}